<svg width="23" height="23" viewBox="0 0 23 23" fill="none" xmlns="http://www.w3.org/2000/svg">
<g clip-path="url(#clip0_80_337)">
<path d="M22.0413 10.5411C21.5118 10.5411 21.0826 10.9703 21.0826 11.4998V20.1248C21.0826 20.6533 20.6524 21.0835 20.124 21.0835H2.875C2.34654 21.0835 1.91632 20.6533 1.91632 20.1248V2.87481C1.91632 2.34635 2.34654 1.91614 2.875 1.91614H11.5C12.0295 1.91614 12.4587 1.48695 12.4587 0.957457C12.4587 0.427961 12.0295 -0.0012207 11.5 -0.0012207H2.875C1.28961 -0.000186531 0 1.28943 0 2.87481V20.1248C0 21.7102 1.28961 22.9998 2.875 22.9998H20.125C21.7104 22.9998 23 21.7102 23 20.1248V11.4998C23 10.9703 22.5708 10.5411 22.0413 10.5411Z" fill="#666666"/>
<path d="M22.0414 0H15.3327C14.8043 0 14.3751 0.429182 14.3751 0.958678C14.3751 1.48817 14.8043 1.91736 15.3338 1.91736H19.729L10.8237 10.8226C10.4494 11.197 10.4494 11.803 10.8237 12.1774C11.0109 12.3646 11.256 12.4576 11.5011 12.4576C11.7462 12.4576 11.9913 12.3646 12.1785 12.1774L21.0838 3.27212V7.66736C21.0838 8.19685 21.5129 8.62603 22.0424 8.62603C22.5719 8.62603 23.0011 8.19685 23.0011 7.66736V0.958678C23.0001 0.429182 22.5709 0 22.0414 0Z" fill="#666666"/>
</g>
<defs>
<clipPath id="clip0_80_337">
<rect width="23" height="23" fill="white"/>
</clipPath>
</defs>
</svg>
